Started at Sun Apr 09 17:14:10 UTC 2023
Processing java-maven
Offering java-maven to Project Build Discarder
java-maven accepted by Project Build Discarder
Finished at Sun Apr 09 17:14:10 UTC 2023. 2ms
